(module Hirose_FH12-20S-0.5SH_1x20-1MP_P0.50mm_Horizontal (layer F.Cu) (tedit 5F533C50)
  (descr "Hirose FH12, FFC/FPC connector, FH12-20S-0.5SH, 20 Pins per row (https://www.hirose.com/product/en/products/FH12/FH12-24S-0.5SH(55)/), generated with kicad-footprint-generator")
  (tags "connector Hirose FH12 horizontal")
  (attr smd)
  (fp_text reference J1 (at 0 -5.224) (layer F.SilkS)
    (effects (font (size 1 1) (thickness 0.15)))
  )
  (fp_text value Conn_01x20_Female (at 0 4.076) (layer F.Fab)
    (effects (font (size 1 1) (thickness 0.15)))
  )
  (fp_line (start 0 -2.724) (end 6.55 -2.724) (layer F.Fab) (width 0.1))
  (fp_line (start 6.55 -2.724) (end 6.55 1.876) (layer F.Fab) (width 0.1))
  (fp_line (start 6.55 1.876) (end 5.95 1.876) (layer F.Fab) (width 0.1))
  (fp_line (start 5.95 1.876) (end 5.95 2.176) (layer F.Fab) (width 0.1))
  (fp_line (start 5.95 2.176) (end 6.45 2.176) (layer F.Fab) (width 0.1))
  (fp_line (start 6.45 2.176) (end 6.45 2.876) (layer F.Fab) (width 0.1))
  (fp_line (start 6.45 2.876) (end 0 2.876) (layer F.Fab) (width 0.1))
  (fp_line (start 0 -2.724) (end -6.55 -2.724) (layer F.Fab) (width 0.1))
  (fp_line (start -6.55 -2.724) (end -6.55 1.876) (layer F.Fab) (width 0.1))
  (fp_line (start -6.55 1.876) (end -5.95 1.876) (layer F.Fab) (width 0.1))
  (fp_line (start -5.95 1.876) (end -5.95 2.176) (layer F.Fab) (width 0.1))
  (fp_line (start -5.95 2.176) (end -6.45 2.176) (layer F.Fab) (width 0.1))
  (fp_line (start -6.45 2.176) (end -6.45 2.876) (layer F.Fab) (width 0.1))
  (fp_line (start -6.45 2.876) (end 0 2.876) (layer F.Fab) (width 0.1))
  (fp_line (start 5.16 -2.824) (end 6.65 -2.824) (layer F.SilkS) (width 0.12))
  (fp_line (start 6.65 -2.824) (end 6.65 -1.484) (layer F.SilkS) (width 0.12))
  (fp_line (start -5.16 -2.824) (end -6.65 -2.824) (layer F.SilkS) (width 0.12))
  (fp_line (start -6.65 -2.824) (end -6.65 -1.484) (layer F.SilkS) (width 0.12))
  (fp_line (start 6.65 1.236) (end 6.65 2.976) (layer F.SilkS) (width 0.12))
  (fp_line (start 6.65 2.976) (end -6.65 2.976) (layer F.SilkS) (width 0.12))
  (fp_line (start -6.65 2.976) (end -6.65 1.236) (layer F.SilkS) (width 0.12))
  (fp_line (start 5.16 -2.824) (end 5.16 -4.024) (layer F.SilkS) (width 0.12))
  (fp_line (start 5.25 -2.724) (end 4.75 -2.016893) (layer F.Fab) (width 0.1))
  (fp_line (start 4.75 -2.016893) (end 4.25 -2.724) (layer F.Fab) (width 0.1))
  (fp_line (start 8.05 -4.524) (end 8.05 3.376) (layer F.CrtYd) (width 0.05))
  (fp_line (start 8.05 3.376) (end -8.05 3.376) (layer F.CrtYd) (width 0.05))
  (fp_line (start -8.05 3.376) (end -8.05 -4.524) (layer F.CrtYd) (width 0.05))
  (fp_line (start -8.05 -4.524) (end 8.05 -4.524) (layer F.CrtYd) (width 0.05))
  (fp_text user %R (at 0 2.176) (layer F.Fab)
    (effects (font (size 1 1) (thickness 0.15)))
  )
  (pad 20 smd rect (at -4.75 -3.374) (size 0.3 1.3) (layers F.Cu F.Paste F.Mask))
  (pad 19 smd rect (at -4.25 -3.374) (size 0.3 1.3) (layers F.Cu F.Paste F.Mask))
  (pad 18 smd rect (at -3.75 -3.374) (size 0.3 1.3) (layers F.Cu F.Paste F.Mask))
  (pad 17 smd rect (at -3.25 -3.374) (size 0.3 1.3) (layers F.Cu F.Paste F.Mask))
  (pad 16 smd rect (at -2.75 -3.374) (size 0.3 1.3) (layers F.Cu F.Paste F.Mask))
  (pad 15 smd rect (at -2.25 -3.374) (size 0.3 1.3) (layers F.Cu F.Paste F.Mask))
  (pad 14 smd rect (at -1.75 -3.374) (size 0.3 1.3) (layers F.Cu F.Paste F.Mask))
  (pad 13 smd rect (at -1.25 -3.374) (size 0.3 1.3) (layers F.Cu F.Paste F.Mask))
  (pad 12 smd rect (at -0.75 -3.374) (size 0.3 1.3) (layers F.Cu F.Paste F.Mask))
  (pad 11 smd rect (at -0.25 -3.374) (size 0.3 1.3) (layers F.Cu F.Paste F.Mask))
  (pad 10 smd rect (at 0.25 -3.374) (size 0.3 1.3) (layers F.Cu F.Paste F.Mask))
  (pad 9 smd rect (at 0.75 -3.374) (size 0.3 1.3) (layers F.Cu F.Paste F.Mask))
  (pad 8 smd rect (at 1.25 -3.374) (size 0.3 1.3) (layers F.Cu F.Paste F.Mask))
  (pad 7 smd rect (at 1.75 -3.374) (size 0.3 1.3) (layers F.Cu F.Paste F.Mask))
  (pad 6 smd rect (at 2.25 -3.374) (size 0.3 1.3) (layers F.Cu F.Paste F.Mask))
  (pad 5 smd rect (at 2.75 -3.374) (size 0.3 1.3) (layers F.Cu F.Paste F.Mask))
  (pad 4 smd rect (at 3.25 -3.374) (size 0.3 1.3) (layers F.Cu F.Paste F.Mask))
  (pad 3 smd rect (at 3.75 -3.374) (size 0.3 1.3) (layers F.Cu F.Paste F.Mask))
  (pad 2 smd rect (at 4.25 -3.374) (size 0.3 1.3) (layers F.Cu F.Paste F.Mask))
  (pad 1 smd rect (at 4.75 -3.374) (size 0.3 1.3) (layers F.Cu F.Paste F.Mask))
  (pad MP smd rect (at 6.65 -0.124) (size 1.8 2.2) (layers F.Cu F.Paste F.Mask))
  (pad MP smd rect (at -6.65 -0.124) (size 1.8 2.2) (layers F.Cu F.Paste F.Mask))
  (model ${KISYS3DMOD}/Connector_FFC-FPC.3dshapes/Hirose_FH12-20S-0.5SH_1x20-1MP_P0.50mm_Horizontal.wrl
    (at (xyz 0 0 0))
    (scale (xyz 1 1 1))
    (rotate (xyz 0 0 0))
  )
)
