EESchema Schematic File Version 4
EELAYER 30 0
EELAYER END
$Descr A4 11693 8268
encoding utf-8
Sheet 2 3
Title ""
Date ""
Rev ""
Comp ""
Comment1 ""
Comment2 ""
Comment3 ""
Comment4 ""
$EndDescr
$Comp
L immobilizer_sym:VGA15-F(CD0515S21J0)-OLIMEX_Connectors VGA1
U 1 1 5EA1466F
P 10350 4300
F 0 "VGA1" H 10450 5250 60  0000 C CNN
F 1 "VGA15-F(CD0515S21J0)" H 10300 3300 60  0000 C CNN
F 2 "OLIMEX/KiCAD/KiCAD_Footprints/OLIMEX_Connectors-FP.pretty:VGA15-F(CD0515S21J0)" H 10350 4300 60  0001 C CNN
F 3 "" H 10350 4300 60  0000 C CNN
	1    10350 4300
	1    0    0    -1  
$EndComp
Text Notes 1100 5800 0    60   ~ 0
HSYNC
Text Notes 1100 5900 0    60   ~ 0
VSYNC
Wire Wire Line
	9950 4400 10050 4400
Wire Wire Line
	9950 3900 9950 4000
Wire Wire Line
	10050 4300 9950 4300
Connection ~ 9950 4400
Wire Wire Line
	10050 4200 9950 4200
Connection ~ 9950 4300
Wire Wire Line
	10050 4100 9950 4100
Connection ~ 9950 4200
Wire Wire Line
	10050 4000 9950 4000
Connection ~ 9950 4100
Wire Wire Line
	10050 3900 9950 3900
Connection ~ 9950 4000
NoConn ~ 10050 4900
NoConn ~ 10050 4600
NoConn ~ 10050 4500
NoConn ~ 10050 3800
Text Notes 5600 1100 0    200  Italic 40
A/V Out
$Comp
L power:GND #PWR0103
U 1 1 5EA146F7
P 9950 5300
F 0 "#PWR0103" H 9950 5050 50  0001 C CNN
F 1 "GND" H 9950 5150 50  0000 C CNN
F 2 "" H 9950 5300 60  0000 C CNN
F 3 "" H 9950 5300 60  0000 C CNN
	1    9950 5300
	1    0    0    -1  
$EndComp
Wire Wire Line
	9950 5000 9950 5100
Wire Wire Line
	9950 5100 10050 5100
Wire Wire Line
	10050 5000 9950 5000
Connection ~ 9950 5100
Wire Wire Line
	9950 4400 9950 4500
Wire Wire Line
	9950 4300 9950 4400
Wire Wire Line
	9950 4200 9950 4300
Wire Wire Line
	9950 4100 9950 4200
Wire Wire Line
	9950 4000 9950 4100
Wire Wire Line
	9950 5100 9950 5300
$Comp
L power:GND #PWR0104
U 1 1 5EA146B4
P 9950 4500
F 0 "#PWR0104" H 9950 4250 50  0001 C CNN
F 1 "GND" H 9950 4350 50  0000 C CNN
F 2 "" H 9950 4500 60  0000 C CNN
F 3 "" H 9950 4500 60  0000 C CNN
	1    9950 4500
	1    0    0    -1  
$EndComp
Wire Wire Line
	1700 4750 1050 4750
Wire Wire Line
	1700 4650 1050 4650
Wire Wire Line
	1700 4550 1050 4550
Wire Wire Line
	1700 4450 1050 4450
Wire Wire Line
	1700 4350 1050 4350
Wire Wire Line
	1700 3500 1050 3500
Wire Wire Line
	1700 3400 1050 3400
Wire Wire Line
	1700 3300 1050 3300
Wire Wire Line
	1700 3200 1050 3200
Wire Wire Line
	1700 3100 1050 3100
Wire Wire Line
	1700 3000 1050 3000
Wire Wire Line
	1700 2300 1050 2300
Wire Wire Line
	1700 2200 1050 2200
Wire Wire Line
	1700 2100 1050 2100
Wire Wire Line
	1700 2000 1050 2000
Wire Wire Line
	1700 1900 1050 1900
Wire Wire Line
	1700 1800 1050 1800
Wire Wire Line
	1500 1600 1500 1700
Wire Wire Line
	1500 1700 1700 1700
$Comp
L immobilizer_sym:GND-OLIMEX_Power #PWR0105
U 1 1 5E7AC0E8
P 1400 1600
F 0 "#PWR0105" H 1400 1350 50  0001 C CNN
F 1 "GND" H 1405 1427 50  0000 C CNN
F 2 "" H 1400 1600 60  0000 C CNN
F 3 "" H 1400 1600 60  0000 C CNN
	1    1400 1600
	1    0    0    -1  
$EndComp
Wire Wire Line
	1400 1600 1500 1600
Wire Wire Line
	2100 1800 2150 1800
Wire Wire Line
	2150 1800 2150 1700
Wire Wire Line
	2150 1700 2100 1700
Wire Wire Line
	2500 2000 2800 2000
Connection ~ 2500 2000
Wire Wire Line
	2500 950  2500 2000
Wire Wire Line
	3450 950  2500 950 
Wire Wire Line
	3450 1600 3450 1500
Wire Wire Line
	2550 1000 3400 1000
Wire Wire Line
	2550 1900 2750 1900
Connection ~ 2550 1900
Wire Wire Line
	2550 1000 2550 1900
Wire Wire Line
	2150 1800 2700 1800
Connection ~ 2150 1800
Wire Wire Line
	2100 1900 2550 1900
Wire Wire Line
	2100 2000 2500 2000
Wire Wire Line
	2100 2100 2450 2100
Wire Wire Line
	3500 1800 3500 1700
Wire Wire Line
	3500 900  2450 900 
Wire Wire Line
	2450 900  2450 2100
Connection ~ 2450 2100
Wire Wire Line
	2450 2100 2850 2100
Wire Wire Line
	2100 2200 2400 2200
Wire Wire Line
	3550 850  2400 850 
Wire Wire Line
	2400 850  2400 2200
Connection ~ 2400 2200
Wire Wire Line
	2400 2200 2900 2200
Wire Wire Line
	3600 800  2350 800 
Wire Wire Line
	2350 800  2350 2300
Wire Wire Line
	2100 2300 2350 2300
Wire Wire Line
	1050 4250 1700 4250
Wire Wire Line
	1500 2800 1500 2900
Wire Wire Line
	1500 2900 1700 2900
$Comp
L immobilizer_sym:GND-OLIMEX_Power #PWR0106
U 1 1 5E879982
P 1400 2800
F 0 "#PWR0106" H 1400 2550 50  0001 C CNN
F 1 "GND" H 1405 2627 50  0000 C CNN
F 2 "" H 1400 2800 60  0000 C CNN
F 3 "" H 1400 2800 60  0000 C CNN
	1    1400 2800
	1    0    0    -1  
$EndComp
Wire Wire Line
	1400 2800 1500 2800
Text Label 3800 3850 0    50   ~ 0
DAC_GREEN
Wire Wire Line
	1700 4150 1550 4150
Wire Wire Line
	1550 4150 1550 4000
Wire Wire Line
	1550 4000 1400 4000
$Comp
L immobilizer_sym:GND-OLIMEX_Power #PWR0107
U 1 1 5E943D2B
P 1400 4000
F 0 "#PWR0107" H 1400 3750 50  0001 C CNN
F 1 "GND" H 1405 3827 50  0000 C CNN
F 2 "" H 1400 4000 60  0000 C CNN
F 3 "" H 1400 4000 60  0000 C CNN
	1    1400 4000
	1    0    0    -1  
$EndComp
Text Label 4250 4850 2    50   ~ 0
DAC_BLUE
Wire Wire Line
	1050 5900 5200 5900
Wire Wire Line
	1050 5800 5000 5800
Wire Wire Line
	2100 3000 2150 3000
Wire Wire Line
	2100 2900 2150 2900
Wire Wire Line
	2150 2900 2150 3000
Connection ~ 2150 3000
Wire Wire Line
	2100 4250 2200 4250
Wire Wire Line
	2100 4150 2200 4150
Wire Wire Line
	2200 4150 2200 4250
Wire Wire Line
	5450 2600 5850 2600
Wire Wire Line
	5650 2750 5850 2750
Connection ~ 5450 2600
Connection ~ 5650 2750
$Comp
L immobilizer_sym:THS7374IPWR U2
U 1 1 5E78F19B
P 6050 2200
F 0 "U2" H 6175 2400 60  0000 C CNN
F 1 "THS7373IPWR" H 6350 2300 60  0000 C CNN
F 2 "digikey/digikey-kicad-library/digikey-footprints.pretty:TSSOP-14_W4.4mm" H 6475 2475 60  0001 C CNN
F 3 "http://www.ti.com/lit/ds/symlink/ths7373.pdf" H 7125 2575 60  0001 C CNN
F 4 "296-25626-1-ND" H 6475 2675 60  0001 C CNN "Digikey"
F 5 "IC AMP FILTER 14TSSOP" H 6900 2775 60  0001 C CNN "Description"
	1    6050 2200
	1    0    0    -1  
$EndComp
Text Label 7750 2450 0    60   ~ 0
R-Out
Text Label 7750 2600 0    60   ~ 0
G-Out
Text Label 7750 2750 0    60   ~ 0
B-Out
NoConn ~ 7050 3050
NoConn ~ 7050 3150
Wire Wire Line
	5200 5900 5200 4800
Wire Wire Line
	5450 2600 5450 3350
Wire Wire Line
	5650 2750 5650 3350
Wire Wire Line
	5450 3650 5450 3800
Wire Wire Line
	5650 3650 5650 3800
Connection ~ 5850 3150
Wire Wire Line
	5850 3150 5850 3050
Wire Wire Line
	5450 3800 5650 3800
$Comp
L power:GND #PWR0108
U 1 1 5E9FA972
P 5850 3800
F 0 "#PWR0108" H 5850 3550 50  0001 C CNN
F 1 "GND" H 5855 3627 50  0000 C CNN
F 2 "" H 5850 3800 50  0001 C CNN
F 3 "" H 5850 3800 50  0001 C CNN
	1    5850 3800
	1    0    0    -1  
$EndComp
$Comp
L Device:R_US R1
U 1 1 5EA0766F
P 5200 3500
F 0 "R1" V 5100 3350 50  0000 C CNN
F 1 "133" V 5100 3600 50  0000 C CNN
F 2 "KiCad/kicad-footprints/Resistor_SMD.pretty:R_0603_1608Metric" V 5130 3500 30  0001 C CNN
F 3 "" H 5200 3500 30  0001 C CNN
F 4 "" V 5200 3500 60  0001 C CNN "Digikey"
F 5 "RES SMD 453 OHM 1% 1/10W 0603" V 5200 3500 60  0001 C CNN "Description"
	1    5200 3500
	-1   0    0    1   
$EndComp
Wire Wire Line
	5200 2450 5200 3350
Wire Wire Line
	5200 3650 5200 3800
Wire Wire Line
	5200 3800 5450 3800
Connection ~ 5450 3800
Wire Wire Line
	5200 2450 5850 2450
Wire Wire Line
	8300 2600 8300 2550
NoConn ~ 8800 2750
Wire Wire Line
	7050 2600 8300 2600
Wire Wire Line
	5850 3150 5850 3800
$Comp
L immobilizer_sym:THS7374IPWR U2
U 2 1 5EA8CA25
P 6300 5450
F 0 "U2" H 6630 5278 60  0000 L CNN
F 1 "THS7373IPWR" H 6630 5172 60  0000 L CNN
F 2 "digikey/digikey-kicad-library/digikey-footprints.pretty:TSSOP-14_W4.4mm" H 6725 5725 60  0001 C CNN
F 3 "http://www.ti.com/lit/ds/symlink/ths7373.pdf" H 7375 5825 60  0001 C CNN
F 4 "296-41661-1-ND" H 6725 5925 60  0001 C CNN "Digikey"
F 5 "IC SDTV VIDEO AMP 4-CH 14-TSSOP" H 7150 6025 60  0001 C CNN "Description"
	2    6300 5450
	1    0    0    -1  
$EndComp
Wire Wire Line
	4250 2600 4250 3850
Wire Wire Line
	4250 2600 5450 2600
Wire Wire Line
	4350 2750 5650 2750
Wire Wire Line
	5650 3800 5850 3800
Connection ~ 5650 3800
Connection ~ 5850 3800
Wire Wire Line
	7050 2450 8200 2450
Wire Wire Line
	7050 2750 8400 2750
Wire Wire Line
	8400 2750 8400 2650
Wire Wire Line
	5000 2300 5000 4700
Wire Wire Line
	5000 2300 5850 2300
Text Label 7750 2300 0    60   ~ 0
S-Out
$Comp
L power:GND #PWR0109
U 1 1 5E798CCB
P 6450 6150
F 0 "#PWR0109" H 6450 5900 50  0001 C CNN
F 1 "GND" H 6455 5977 50  0000 C CNN
F 2 "" H 6450 6150 50  0001 C CNN
F 3 "" H 6450 6150 50  0001 C CNN
	1    6450 6150
	1    0    0    -1  
$EndComp
$Comp
L immobilizer_sym:MD-90SM CON1
U 1 1 5E7D8737
P 10150 1850
F 0 "CON1" H 10680 1403 60  0000 L CNN
F 1 "MD-90SM" H 10680 1297 60  0000 L CNN
F 2 "db-thparts:MD-90SM" H 10825 2375 60  0001 C CNN
F 3 "http://www.cui.com/product/resource/digikeypdf/md-sm-series.pdf" H 11950 2300 60  0001 C CNN
F 4 "CP-2290-ND" H 10650 2100 60  0001 C CNN "Digikey"
F 5 "CONN RCPT FMALE MINI DIN 9P SLDR" H 11200 2200 60  0001 C CNN "Description"
	1    10150 1850
	1    0    0    -1  
$EndComp
$Comp
L power:GND #PWR0110
U 1 1 5ED2BDA7
P 10400 3050
F 0 "#PWR0110" H 10400 2800 50  0001 C CNN
F 1 "GND" H 10405 2877 50  0000 C CNN
F 2 "" H 10400 3050 50  0001 C CNN
F 3 "" H 10400 3050 50  0001 C CNN
	1    10400 3050
	1    0    0    -1  
$EndComp
Wire Wire Line
	9700 2450 9700 3500
Wire Wire Line
	9600 2550 9600 3600
Wire Wire Line
	9500 2650 9500 3700
Connection ~ 5000 4700
Wire Wire Line
	5000 4700 5000 5800
Text HLabel 1050 1800 0    50   Input ~ 0
VID_R0
Text HLabel 1050 1900 0    50   Input ~ 0
VID_R1
Text HLabel 1050 2000 0    50   Input ~ 0
VID_R2
Text HLabel 1050 2200 0    50   Input ~ 0
VID_R4
Text HLabel 1050 2300 0    50   Input ~ 0
VID_R5
Text HLabel 1050 3000 0    50   Input ~ 0
VID_G0
Text HLabel 1050 3100 0    50   Input ~ 0
VID_G1
Text HLabel 1050 3200 0    50   Input ~ 0
VID_G2
Text HLabel 1050 3300 0    50   Input ~ 0
VID_G3
Text HLabel 1050 3400 0    50   Input ~ 0
VID_G4
Text HLabel 1050 3500 0    50   Input ~ 0
VID_G5
Text HLabel 1050 4250 0    50   Input ~ 0
VID_B0
Text HLabel 1050 4350 0    50   Input ~ 0
VID_B1
Text HLabel 1050 4450 0    50   Input ~ 0
VID_B2
Text HLabel 1050 4550 0    50   Input ~ 0
VID_B3
Text HLabel 1050 4650 0    50   Input ~ 0
VID_B4
Text HLabel 1050 4750 0    50   Input ~ 0
VID_B5
Text HLabel 1050 5800 0    50   Input ~ 0
VID_HS
Text HLabel 1050 5900 0    50   Input ~ 0
VID_VS
Wire Wire Line
	9500 3700 10050 3700
Wire Wire Line
	9600 3600 10050 3600
Wire Wire Line
	9700 3500 10050 3500
Wire Wire Line
	5000 4700 10050 4700
Wire Wire Line
	5200 4800 10050 4800
NoConn ~ 9200 2750
NoConn ~ 9950 2400
Wire Wire Line
	1050 600  9900 600 
Wire Wire Line
	9900 600  9900 2600
Wire Wire Line
	9900 2600 9950 2600
Wire Wire Line
	9950 2700 9800 2700
Wire Wire Line
	9800 2700 9800 700 
Wire Wire Line
	9800 700  1050 700 
Text HLabel 1050 600  0    50   Input ~ 0
SND_L
Text HLabel 1050 700  0    50   Input ~ 0
SND_R
NoConn ~ 9950 2500
Wire Wire Line
	6450 5250 6450 5200
Wire Wire Line
	6450 6100 6450 6150
$Comp
L Device:C C20
U 1 1 5EAA6DF6
P 6050 5650
F 0 "C20" H 6050 5750 50  0000 L CNN
F 1 "22uF" H 6050 5550 50  0000 L CNN
F 2 "KiCad/kicad-footprints/Capacitor_SMD.pretty:C_0805_2012Metric_Pad1.15x1.40mm_HandSolder" H 6088 5500 50  0001 C CNN
F 3 "~" H 6050 5650 50  0001 C CNN
	1    6050 5650
	1    0    0    -1  
$EndComp
$Comp
L Device:C C19
U 1 1 5EAA7355
P 5650 5650
F 0 "C19" H 5650 5750 50  0000 L CNN
F 1 "100nF" H 5650 5550 50  0000 L CNN
F 2 "KiCad/kicad-footprints/Capacitor_SMD.pretty:C_0805_2012Metric_Pad1.15x1.40mm_HandSolder" H 5688 5500 50  0001 C CNN
F 3 "~" H 5650 5650 50  0001 C CNN
	1    5650 5650
	1    0    0    -1  
$EndComp
Wire Wire Line
	5650 5500 5650 5250
Wire Wire Line
	5650 5250 6050 5250
Connection ~ 6450 5250
Wire Wire Line
	6050 5500 6050 5250
Connection ~ 6050 5250
Wire Wire Line
	6050 5250 6450 5250
Wire Wire Line
	6050 5800 6050 6100
Wire Wire Line
	6050 6100 6450 6100
Connection ~ 6450 6100
Wire Wire Line
	5650 5800 5650 6100
Wire Wire Line
	5650 6100 6050 6100
Connection ~ 6050 6100
$Comp
L Device:R_Pack08 RN1
U 1 1 5EA301A9
P 1900 2100
F 0 "RN1" V 1283 2100 50  0000 C CNN
F 1 "1k" V 1374 2100 50  0000 C CNN
F 2 "KiCad/kicad-footprints/Resistor_SMD.pretty:R_Cat16-8" V 2375 2100 50  0001 C CNN
F 3 "https://www.mouser.com/datasheet/2/54/CATCAY-777361.pdf" H 1900 2100 50  0001 C CNN
	1    1900 2100
	0    1    1    0   
$EndComp
$Comp
L Device:R_Pack08 RN2
U 1 1 5EA33E74
P 1900 3300
F 0 "RN2" V 1283 3300 50  0000 C CNN
F 1 "1k" V 1374 3300 50  0000 C CNN
F 2 "KiCad/kicad-footprints/Resistor_SMD.pretty:R_Cat16-8" V 2375 3300 50  0001 C CNN
F 3 "~" H 1900 3300 50  0001 C CNN
	1    1900 3300
	0    1    1    0   
$EndComp
$Comp
L Device:R_Pack08 RN3
U 1 1 5EA35E4E
P 1900 4550
F 0 "RN3" V 1283 4550 50  0000 C CNN
F 1 "1k" V 1374 4550 50  0000 C CNN
F 2 "KiCad/kicad-footprints/Resistor_SMD.pretty:R_Cat16-8" V 2375 4550 50  0001 C CNN
F 3 "~" H 1900 4550 50  0001 C CNN
	1    1900 4550
	0    1    1    0   
$EndComp
$Comp
L Device:R_Pack08 RN4
U 1 1 5EA38788
P 3150 1700
F 0 "RN4" V 2533 1700 50  0000 C CNN
F 1 "1k" V 2624 1700 50  0000 C CNN
F 2 "KiCad/kicad-footprints/Resistor_SMD.pretty:R_Cat16-8" V 3625 1700 50  0001 C CNN
F 3 "~" H 3150 1700 50  0001 C CNN
	1    3150 1700
	0    -1   1    0   
$EndComp
Wire Wire Line
	2700 1800 2700 1400
Wire Wire Line
	2700 1300 2950 1300
Wire Wire Line
	2700 1400 2950 1400
Connection ~ 2700 1400
Wire Wire Line
	2700 1400 2700 1300
Wire Wire Line
	2750 1900 2750 1600
Wire Wire Line
	2750 1500 2950 1500
Wire Wire Line
	2750 1600 2950 1600
Connection ~ 2750 1600
Wire Wire Line
	2750 1600 2750 1500
Wire Wire Line
	2800 2000 2800 1800
Wire Wire Line
	2800 1700 2950 1700
$Comp
L Device:R_Pack08 RN5
U 1 1 5EBB5F40
P 3150 2500
F 0 "RN5" V 3550 2500 50  0000 C CNN
F 1 "1k" V 3650 2500 50  0000 C CNN
F 2 "KiCad/kicad-footprints/Resistor_SMD.pretty:R_Cat16-8" V 3625 2500 50  0001 C CNN
F 3 "~" H 3150 2500 50  0001 C CNN
	1    3150 2500
	0    -1   1    0   
$EndComp
Wire Wire Line
	2800 1800 2950 1800
Connection ~ 2800 1800
Wire Wire Line
	2800 1800 2800 1700
Wire Wire Line
	2850 2100 2850 2000
Wire Wire Line
	2850 1900 2950 1900
Wire Wire Line
	2850 2000 2950 2000
Connection ~ 2850 2000
Wire Wire Line
	2850 2000 2850 1900
Wire Wire Line
	2900 2200 2900 2100
Wire Wire Line
	2900 2100 2950 2100
Wire Wire Line
	2900 2200 2950 2200
Connection ~ 2900 2200
Wire Wire Line
	3350 1400 3400 1400
Wire Wire Line
	3400 1000 3400 1300
Wire Wire Line
	3350 1300 3400 1300
Connection ~ 3400 1300
Wire Wire Line
	3400 1300 3400 1400
Wire Wire Line
	3450 1600 3350 1600
Wire Wire Line
	3350 1500 3450 1500
Connection ~ 3450 1500
Wire Wire Line
	3450 1500 3450 950 
Wire Wire Line
	3500 1800 3350 1800
Wire Wire Line
	3350 1700 3500 1700
Connection ~ 3500 1700
Wire Wire Line
	3500 1700 3500 900 
Wire Wire Line
	3350 2000 3550 2000
Wire Wire Line
	3550 850  3550 1900
Wire Wire Line
	3550 1900 3350 1900
Connection ~ 3550 1900
Wire Wire Line
	3550 1900 3550 2000
Wire Wire Line
	3600 2100 3600 800 
Wire Wire Line
	3350 2100 3600 2100
Text Label 3850 2100 0    50   ~ 0
DAC_RED
Connection ~ 5200 2450
Wire Wire Line
	4250 2450 5200 2450
Wire Wire Line
	4250 2450 4250 2100
Wire Wire Line
	3600 2100 4250 2100
Connection ~ 3600 2100
Wire Wire Line
	3350 2200 3600 2200
Wire Wire Line
	3600 2200 3600 2100
Wire Wire Line
	2700 3000 2700 2400
Wire Wire Line
	2700 2300 2950 2300
Wire Wire Line
	2150 3000 2700 3000
Wire Wire Line
	2700 2400 2950 2400
Connection ~ 2700 2400
Wire Wire Line
	2700 2400 2700 2300
Wire Wire Line
	2100 3100 2750 3100
Wire Wire Line
	2750 3100 2750 2600
Wire Wire Line
	2750 2500 2950 2500
Wire Wire Line
	2750 2600 2950 2600
Connection ~ 2750 2600
Wire Wire Line
	2750 2600 2750 2500
Wire Wire Line
	2100 3200 2800 3200
Wire Wire Line
	2800 3200 2800 2800
Wire Wire Line
	2800 2700 2950 2700
Wire Wire Line
	2800 2800 2950 2800
Connection ~ 2800 2800
Wire Wire Line
	2800 2800 2800 2700
$Comp
L Device:R_Pack08 RN7
U 1 1 5EE54132
P 3150 4850
F 0 "RN7" V 3550 4850 50  0000 C CNN
F 1 "1k" V 3650 4850 50  0000 C CNN
F 2 "KiCad/kicad-footprints/Resistor_SMD.pretty:R_Cat16-8" V 3625 4850 50  0001 C CNN
F 3 "~" H 3150 4850 50  0001 C CNN
	1    3150 4850
	0    -1   1    0   
$EndComp
$Comp
L Device:R_Pack08 RN6
U 1 1 5EE5A846
P 3150 4050
F 0 "RN6" V 2533 4050 50  0000 C CNN
F 1 "1k" V 2624 4050 50  0000 C CNN
F 2 "KiCad/kicad-footprints/Resistor_SMD.pretty:R_Cat16-8" V 3625 4050 50  0001 C CNN
F 3 "~" H 3150 4050 50  0001 C CNN
	1    3150 4050
	0    -1   1    0   
$EndComp
Wire Wire Line
	2800 3300 2800 3650
Wire Wire Line
	2800 3650 2950 3650
Wire Wire Line
	2100 3300 2800 3300
Wire Wire Line
	2800 3650 2800 3750
Wire Wire Line
	2800 3750 2950 3750
Connection ~ 2800 3650
Wire Wire Line
	2750 3400 2750 3850
Wire Wire Line
	2750 3950 2950 3950
Wire Wire Line
	2950 3850 2750 3850
Connection ~ 2750 3850
Wire Wire Line
	2750 3850 2750 3950
Wire Wire Line
	2200 4250 2750 4250
Wire Wire Line
	2750 4250 2750 4150
Wire Wire Line
	2750 4050 2950 4050
Connection ~ 2200 4250
Wire Wire Line
	2750 4150 2950 4150
Connection ~ 2750 4150
Wire Wire Line
	2750 4150 2750 4050
Wire Wire Line
	2100 4350 2550 4350
Wire Wire Line
	2800 4250 2950 4250
Wire Wire Line
	2800 4350 2950 4350
Connection ~ 2800 4350
Wire Wire Line
	2800 4350 2800 4250
Wire Wire Line
	2800 4450 2950 4450
Wire Wire Line
	2800 4550 2950 4550
Wire Wire Line
	2800 4550 2800 4450
Wire Wire Line
	2750 4750 2750 4650
Wire Wire Line
	2750 4650 2950 4650
Wire Wire Line
	2750 4750 2950 4750
Wire Wire Line
	2700 4850 2700 4950
Wire Wire Line
	2700 4950 2950 4950
Wire Wire Line
	2700 4850 2950 4850
Wire Wire Line
	3350 2300 3600 2300
Wire Wire Line
	3600 2300 3600 2400
Connection ~ 2750 3100
Wire Wire Line
	3350 2400 3600 2400
Connection ~ 3600 2400
Wire Wire Line
	3600 2400 3600 3100
Wire Wire Line
	3350 2500 3550 2500
Wire Wire Line
	3550 2500 3550 2600
Connection ~ 2800 3200
Wire Wire Line
	2750 3100 3600 3100
Wire Wire Line
	2800 3200 3550 3200
Wire Wire Line
	3350 2600 3550 2600
Connection ~ 3550 2600
Wire Wire Line
	3550 2600 3550 3200
Wire Wire Line
	3350 2700 3500 2700
Wire Wire Line
	3500 2700 3500 2800
Wire Wire Line
	3500 3300 2800 3300
Connection ~ 2800 3300
Wire Wire Line
	3350 2800 3500 2800
Connection ~ 3500 2800
Wire Wire Line
	3500 2800 3500 3300
Wire Wire Line
	3350 3650 3550 3650
Connection ~ 2750 3400
Wire Wire Line
	3550 3650 3550 3750
Wire Wire Line
	3550 3750 3350 3750
Connection ~ 3550 3650
Wire Wire Line
	2100 3400 2750 3400
Wire Wire Line
	3550 3650 3550 3400
Wire Wire Line
	3550 3400 2750 3400
Wire Wire Line
	2700 4650 2700 4850
Connection ~ 2700 4850
Wire Wire Line
	3350 3850 3600 3850
Wire Wire Line
	3350 3950 3600 3950
Wire Wire Line
	3600 3950 3600 3850
Connection ~ 3600 3850
Wire Wire Line
	2100 3500 3600 3500
Wire Wire Line
	3600 3500 3600 3850
Wire Wire Line
	3600 3850 4250 3850
Wire Wire Line
	2100 4550 2650 4550
Wire Wire Line
	2750 4550 2750 4650
Connection ~ 2750 4650
Wire Wire Line
	2100 4450 2600 4450
Connection ~ 2800 4450
Wire Wire Line
	3350 4050 3600 4050
Wire Wire Line
	3600 4050 3600 4150
Wire Wire Line
	3600 4150 3350 4150
Wire Wire Line
	3600 4150 3600 5600
Wire Wire Line
	3600 5600 2550 5600
Wire Wire Line
	2550 5600 2550 4350
Connection ~ 3600 4150
Connection ~ 2550 4350
Wire Wire Line
	2550 4350 2800 4350
Wire Wire Line
	3350 4250 3550 4250
Wire Wire Line
	3550 4250 3550 4350
Wire Wire Line
	3550 4350 3350 4350
Wire Wire Line
	3550 4350 3550 5550
Wire Wire Line
	3550 5550 2600 5550
Wire Wire Line
	2600 5550 2600 4450
Connection ~ 3550 4350
Connection ~ 2600 4450
Wire Wire Line
	2600 4450 2800 4450
Wire Wire Line
	3350 4450 3500 4450
Wire Wire Line
	3500 4450 3500 4550
Wire Wire Line
	3500 4550 3350 4550
Wire Wire Line
	3500 4550 3500 5500
Wire Wire Line
	3500 5500 2650 5500
Wire Wire Line
	2650 5500 2650 4550
Connection ~ 3500 4550
Connection ~ 2650 4550
Wire Wire Line
	2650 4550 2750 4550
Wire Wire Line
	3350 4650 3450 4650
Wire Wire Line
	3450 4650 3450 4750
Wire Wire Line
	3450 4750 3350 4750
Wire Wire Line
	3450 4750 3450 5450
Wire Wire Line
	3450 5450 2700 5450
Connection ~ 3450 4750
Wire Wire Line
	2100 4650 2700 4650
Wire Wire Line
	2700 5450 2700 4950
Connection ~ 2700 4950
Wire Wire Line
	3350 4850 3400 4850
Wire Wire Line
	4350 2750 4350 4850
Wire Wire Line
	3350 4950 3400 4950
Wire Wire Line
	3400 4950 3400 4850
Connection ~ 3400 4850
Wire Wire Line
	3400 4850 3650 4850
Wire Wire Line
	2100 4750 2500 4750
Wire Wire Line
	2500 4750 2500 5650
Wire Wire Line
	2500 5650 3650 5650
Wire Wire Line
	3650 5650 3650 4850
Connection ~ 3650 4850
Wire Wire Line
	3650 4850 4350 4850
$Comp
L Device:R_US R2
U 1 1 5FAC7797
P 5450 3500
F 0 "R2" V 5350 3350 50  0000 C CNN
F 1 "133" V 5350 3600 50  0000 C CNN
F 2 "KiCad/kicad-footprints/Resistor_SMD.pretty:R_0603_1608Metric" V 5380 3500 30  0001 C CNN
F 3 "" H 5450 3500 30  0001 C CNN
F 4 "" V 5450 3500 60  0001 C CNN "Digikey"
F 5 "RES SMD 453 OHM 1% 1/10W 0603" V 5450 3500 60  0001 C CNN "Description"
	1    5450 3500
	-1   0    0    1   
$EndComp
$Comp
L Device:R_US R3
U 1 1 5FAC7D50
P 5650 3500
F 0 "R3" V 5550 3350 50  0000 C CNN
F 1 "133" V 5550 3600 50  0000 C CNN
F 2 "KiCad/kicad-footprints/Resistor_SMD.pretty:R_0603_1608Metric" V 5580 3500 30  0001 C CNN
F 3 "0" H 5650 3500 30  0001 C CNN
F 4 "" V 5650 3500 60  0001 C CNN "Digikey"
F 5 "RES SMD 453 OHM 1% 1/10W 0603" V 5650 3500 60  0001 C CNN "Description"
	1    5650 3500
	-1   0    0    1   
$EndComp
$Comp
L power:+5V #PWR0111
U 1 1 5FAC9415
P 6450 5200
F 0 "#PWR0111" H 6450 5050 50  0001 C CNN
F 1 "+5V" H 6465 5373 50  0000 C CNN
F 2 "" H 6450 5200 50  0001 C CNN
F 3 "" H 6450 5200 50  0001 C CNN
	1    6450 5200
	1    0    0    -1  
$EndComp
Wire Wire Line
	7050 2300 9950 2300
Wire Wire Line
	8200 2000 8200 2450
Wire Wire Line
	8200 2000 9950 2000
Connection ~ 8200 2450
Wire Wire Line
	8200 2450 8800 2450
Wire Wire Line
	8300 2100 8300 2550
Wire Wire Line
	8300 2100 9950 2100
Connection ~ 8300 2550
Wire Wire Line
	8300 2550 8800 2550
Wire Wire Line
	8400 2200 8400 2650
Wire Wire Line
	8400 2200 9950 2200
Connection ~ 8400 2650
Wire Wire Line
	8400 2650 8800 2650
$Comp
L power:+5V #PWR0122
U 1 1 5FBBEE1D
P 10400 1650
F 0 "#PWR0122" H 10400 1500 50  0001 C CNN
F 1 "+5V" H 10415 1823 50  0000 C CNN
F 2 "" H 10400 1650 50  0001 C CNN
F 3 "" H 10400 1650 50  0001 C CNN
	1    10400 1650
	1    0    0    -1  
$EndComp
Wire Wire Line
	9200 2450 9700 2450
Wire Wire Line
	9200 2550 9600 2550
Wire Wire Line
	9200 2650 9500 2650
$Comp
L Device:R_Pack04 RN8
U 1 1 5E778B91
P 9000 2550
F 0 "RN8" V 8700 2550 50  0000 C CNN
F 1 "75" V 8600 2550 50  0000 C CNN
F 2 "apexelectrix/apex-smd-resistors.pretty:R_Cat16-4" V 9275 2550 50  0001 C CNN
F 3 "~" H 9000 2550 50  0001 C CNN
	1    9000 2550
	0    -1   -1   0   
$EndComp
NoConn ~ 1700 2400
NoConn ~ 2100 2400
NoConn ~ 2100 3600
NoConn ~ 1700 3600
NoConn ~ 1700 4850
NoConn ~ 2100 4850
NoConn ~ 2950 5050
NoConn ~ 2950 5150
NoConn ~ 3350 5150
NoConn ~ 3350 5050
Text HLabel 1050 2100 0    50   Input ~ 0
VID_R3
$EndSCHEMATC
