(module TestPoint_Pad_2.0x4.0mm (layer F.Cu) (tedit 5F4FE24E)
  (descr "SMD rectangular pad as test Point, square 4.0mm side length")
  (tags "test point SMD pad rectangle square")
  (attr virtual)
  (fp_text reference J2 (at 0 -1.898) (layer F.SilkS)
    (effects (font (size 1 1) (thickness 0.15)))
  )
  (fp_text value BTN_A (at 0 2.2) (layer F.Fab)
    (effects (font (size 1 1) (thickness 0.15)))
  )
  (fp_line (start 2.5 1.5) (end -2.5 1.5) (layer F.CrtYd) (width 0.05))
  (fp_line (start 2.5 1.5) (end 2.5 -1.5) (layer F.CrtYd) (width 0.05))
  (fp_line (start -2.5 -1.5) (end -2.5 1.5) (layer F.CrtYd) (width 0.05))
  (fp_line (start -2.5 -1.5) (end 2.5 -1.5) (layer F.CrtYd) (width 0.05))
  (fp_line (start -2.2 1.2) (end -2.2 -1.2) (layer F.SilkS) (width 0.12))
  (fp_line (start 2.2 1.2) (end -2.2 1.2) (layer F.SilkS) (width 0.12))
  (fp_line (start 2.2 -1.2) (end 2.2 1.2) (layer F.SilkS) (width 0.12))
  (fp_line (start -2.2 -1.2) (end 2.2 -1.2) (layer F.SilkS) (width 0.12))
  (fp_text user %R (at 0 -1.9) (layer F.Fab)
    (effects (font (size 1 1) (thickness 0.15)))
  )
  (pad 1 smd rect (at 0 0) (size 4 2) (layers F.Cu F.Mask))
)
